Regulatory Elements in Neurodegenerative Diseases: Overlap with Human GWAS Risk Loci
…
What is the top closest gene?

lapply(regelements, function(x) {x@elementMetadata %>% as.data.frame() %>% group_by(closestGene) %>% summarize(n = n(), mean_distance = mean(distanceToClosest, na.rm = T)) %>% arrange(-n)})

## $astrocytes
## # A tibble: 14,255 x 3
##    closestGene       n mean_distance
##    <chr>         <int>         <dbl>
##  1 Gm26804         163           0  
##  2 Gm20388          98           0  
##  3 Gm2619           55           0  
##  4 4930467E23Rik    48        4313. 
##  5 6820431F20Rik    47         444. 
##  6 C230088H06Rik    34           0  
##  7 Mid1             32          57.2
##  8 2610005L07Rik    31        5241. 
##  9 Fgfr2            29         647. 
## 10 Gm7760           27        3632. 
## # ... with 14,245 more rows
## 
## $pvNeurons
## # A tibble: 21,264 x 3
##    closestGene     n mean_distance
##    <chr>       <int>         <dbl>
##  1 Gm20388       101           0  
##  2 Tenm2          80        1633. 
##  3 Celf4          76         562. 
##  4 Astn2          69         836. 
##  5 Elmo1          69         316. 
##  6 Pde4d          69        1541. 
##  7 Ctnna3         67          18.0
##  8 Klhl29         66          59.9
##  9 Dpp6           60         204. 
## 10 Gm37240        60           0  
## # ... with 21,254 more rows
## 
## $camk2aNeurons
## # A tibble: 23,698 x 3
##    closestGene     n mean_distance
##    <chr>       <int>         <dbl>
##  1 Gm20388       180          0   
##  2 Tenm2         118       5918.  
##  3 Ctnna2        116      11288.  
##  4 Pde4d         102          6.54
##  5 Gm37240        99          0   
##  6 Gpc6           99       1113.  
##  7 Magi2          96          0   
##  8 Lsamp          95        262.  
##  9 Cntnap2        94       2177.  
## 10 Elmo1          94       1356.  
## # ... with 23,688 more rows
## 
## $microglia
## # A tibble: 25,535 x 3
##    closestGene     n mean_distance
##    <chr>       <int>         <dbl>
##  1 Gm20388       585           0  
##  2 Fgfr2         294         153. 
##  3 Hdac9         167         355. 
##  4 Pde4d         167         439. 
##  5 Rbfox1        166       62284. 
##  6 Fat3          163        5790. 
##  7 Nav2          155          80.5
##  8 Pard3b        155          29.9
##  9 Magi1         148         113. 
## 10 Chd1          147        2183. 
## # ... with 25,525 more rows
## 
## $frontalCortex
## # A tibble: 17,084 x 3
##    closestGene     n mean_distance
##    <chr>       <int>         <dbl>
##  1 Gm20388        70           0  
##  2 Gm37240        34           0  
##  3 Lsamp          34         251. 
##  4 Lrrc4c         30       15266. 
##  5 Pde4d          30          18.3
##  6 Ctnna3         29           0  
##  7 Magi2          28           0  
##  8 Astn2          27           0  
##  9 Macrod2        27        2053. 
## 10 Dab1           26         360. 
## # ... with 17,074 more rows
## 
## $cerebellum
## # A tibble: 15,324 x 3
##    closestGene     n mean_distance
##    <chr>       <int>         <dbl>
##  1 Gm20388        81            0 
##  2 Macrod2        33         1357.
##  3 Lsamp          30          284 
##  4 Pde4d          30         1312 
##  5 Arhgap26       28            0 
##  6 Cadm2          28        31070.
##  7 Ctnnd2         27         4647.
##  8 Astn2          25            0 
##  9 Ctnna2         25         8230.
## 10 Gm37240        25            0 
## # ... with 15,314 more rows
## 
## $dentateGyrus
## # A tibble: 18,255 x 3
##    closestGene     n mean_distance
##    <chr>       <int>         <dbl>
##  1 Gm20388       100            0 
##  2 Ctnna2         46         4818.
##  3 Gm37240        46            0 
##  4 Pde4d          42            0 
##  5 Magi2          41            0 
##  6 Macrod2        39         2681.
##  7 Anks1b         35          986.
##  8 Csmd1          35         3678.
##  9 Tenm2          35         5089.
## 10 Fhit           34          997.
## # ... with 18,245 more rows
…
haplog = haplogp %>% 
  group_by(SNP1.Name) %>% 
  summarize(min_ld1 = min(SNP1.Pos), max_ld1 = max(SNP1.Pos), min_ld2 = min(SNP2.Pos), max_ld2 = max(SNP2.Pos), 
            min_r2 = min(R.squared), min_dpr = min(D.), chr = SNP1.Chr[1], ancestry = Population[1]) 

Some LD intervals do not start with SNP1 but enclose SNP1 - resulting in pseudo-negative widths (This was the mistake made in earlier versions of this script.)

In what cases is SNP1 (the GWAS reference SNP) the starting point of the LD interval?

haplog %>% dplyr::filter(min_ld1 == min_ld2)

## # A tibble: 893 x 9
##    SNP1.Name min_ld1 max_ld1 min_ld2 max_ld2 min_r2 min_dpr chr   ancestry
##    <chr>       <dbl>   <dbl>   <dbl>   <dbl>  <dbl>   <dbl> <chr> <chr>   
##  1 rs100178  1.73e8  1.73e8  1.73e8  1.73e8  1       1     2     CEU+FIN
##  2 rs100182  1.82e8  1.82e8  1.82e8  1.82e8  0.989   1.000 4     CEU+FIN
##  3 rs100600  1.19e7  1.19e7  1.19e7  1.19e7  1       1     5     ACB+ASW
##  4 rs100696  1.28e6  1.28e6  1.28e6  1.28e6  1       1     5     CEU+FIN
##  5 rs101210  3.53e7  3.53e7  3.53e7  3.53e7  1       1     9     CEU+FIN
##  6 rs101236  2.92e7  2.92e7  2.92e7  2.92e7  0.938   0.993 9     CEU+FIN
##  7 rs101489  8.95e5  8.95e5  8.95e5  8.95e5  1       1     20    CEU+FIN
##  8 rs102115  1.98e8  1.98e8  1.98e8  1.98e8  1       1     2     CEU+FIN
##  9 rs102187  4.18e7  4.18e7  4.18e7  4.18e7  0.923   0.986 1     CEU+FIN
## 10 rs102334  1.93e7  1.93e7  1.93e7  1.93e7  0.940   1.000 7     CEU+FIN
## # ... with 883 more rows
…
##    Min. 1st Qu.  Median    Mean 3rd Qu.    Max. 
##       0    3207   23328   69586   80536  999318

Some SNPs do not have an interval:

haplo %>% dplyr::filter(start_ld == end_ld)

## # A tibble: 511 x 13
##    SNP1.Name min_ld1 max_ld1 min_ld2 max_ld2 min_r2 min_dpr chr   ancestry
##    <chr>       <dbl>   <dbl>   <dbl>   <dbl>  <dbl>   <dbl> <chr> <chr>   
##  1 rs100178  1.73e8  1.73e8  1.73e8  1.73e8      1       1 2     CEU+FIN
##  2 rs100600  1.19e7  1.19e7  1.19e7  1.19e7      1       1 5     ACB+ASW
##  3 rs100696  1.28e6  1.28e6  1.28e6  1.28e6      1       1 5     CEU+FIN
##  4 rs101210  3.53e7  3.53e7  3.53e7  3.53e7      1       1 9     CEU+FIN
##  5 rs101489  8.95e5  8.95e5  8.95e5  8.95e5      1       1 20    CEU+FIN
##  6 rs102115  1.98e8  1.98e8  1.98e8  1.98e8      1       1 2     CEU+FIN
##  7 rs102473  1.35e8  1.35e8  1.35e8  1.35e8      1       1 7     CEU+FIN
##  8 rs104700  4.96e7  4.96e7  4.96e7  4.96e7      1       1 20    CEU+FIN
##  9 rs105036  2.00e7  2.00e7  2.00e7  2.00e7      1       1 8     CEU+FIN
## 10 rs107469  7.69e7  7.69e7  7.69e7  7.69e7      1       1 9     CDX+CHB
## # ... with 501 more rows, and 4 more variables: start_ld <dbl>,
## #   end_ld <dbl>, width <dbl>, SNPS <chr>
…
